%YAML 1.1
%TAG !u! tag:unity3d.com,2011:
--- !u!114 &11400000
MonoBehaviour:
  m_ObjectHideFlags: 0
  m_PrefabParentObject: {fileID: 0}
  m_PrefabInternal: {fileID: 0}
  m_GameObject: {fileID: 0}
  m_Enabled: 1
  m_EditorHideFlags: 0
  m_Script: {fileID: 11500000, guid: de5d0209fd91bb347bb6c0e566bb7b15, type: 3}
  m_Name: ModificatorPrefab 1
  m_EditorClassIdentifier: 
  ListTransition:
  - _name: 
    ListCondition:
    - {fileID: 114818024060327900}
    Link:
      name: Color3
      stateID: 132679328
      immediateTransition: 0
      lineEnable: 1
      lineStart: {x: -463, y: 313}
      lineStartTangent: {x: -413, y: 313}
      lineEnd: {x: -276, y: -184}
      lineEndTangent: {x: -326, y: -184}
      lineColorChanged: 0
      lineColor: {r: 1, g: 1, b: 1, a: 1}
    IsShowFoldout: 1
  - _name: 
    ListCondition:
    - {fileID: 114278668798789498}
    Link:
      name: color2
      stateID: 787814235
      immediateTransition: 0
      lineEnable: 1
      lineStart: {x: -463, y: 329}
      lineStartTangent: {x: -413, y: 329}
      lineEnd: {x: -276, y: 92}
      lineEndTangent: {x: -326, y: 92}
      lineColorChanged: 0
      lineColor: {r: 1, g: 1, b: 1, a: 1}
    IsShowFoldout: 1
  - _name: 
    ListCondition:
    - {fileID: 114577757317554524}
    Link:
      name: color1
      stateID: 1746430907
      immediateTransition: 0
      lineEnable: 1
      lineStart: {x: -463, y: 345}
      lineStartTangent: {x: -413, y: 345}
      lineEnd: {x: -276, y: 344}
      lineEndTangent: {x: -326, y: 344}
      lineColorChanged: 0
      lineColor: {r: 1, g: 1, b: 1, a: 1}
    IsShowFoldout: 1
  FsmHash: 10708
  _listPrefabs:
  - {fileID: 1210534948674596, guid: 98cddd3f69f8d8a47973def04ecaf634, type: 2}
  - {fileID: 1525076840495490, guid: d6ffa9398bbbad44f91be2ff806fc29a, type: 2}
  - {fileID: 1257784282508764, guid: 8a9c7a68562e977428d4682b19b689b2, type: 2}
--- !u!114 &114278668798789498
MonoBehaviour:
  m_ObjectHideFlags: 0
  m_PrefabParentObject: {fileID: 0}
  m_PrefabInternal: {fileID: 0}
  m_GameObject: {fileID: 0}
  m_Enabled: 1
  m_EditorHideFlags: 0
  m_Script: {fileID: 11500000, guid: 16096eff3dcb7da47ac026c51374358e, type: 3}
  m_Name: 
  m_EditorClassIdentifier: 
  FsmHash: 10708
  _difficultyLevel: 15
  _sign: 3
--- !u!114 &114577757317554524
MonoBehaviour:
  m_ObjectHideFlags: 0
  m_PrefabParentObject: {fileID: 0}
  m_PrefabInternal: {fileID: 0}
  m_GameObject: {fileID: 0}
  m_Enabled: 1
  m_EditorHideFlags: 0
  m_Script: {fileID: 11500000, guid: 16096eff3dcb7da47ac026c51374358e, type: 3}
  m_Name: 
  m_EditorClassIdentifier: 
  FsmHash: 10708
  _difficultyLevel: 0
  _sign: 3
--- !u!114 &114818024060327900
MonoBehaviour:
  m_ObjectHideFlags: 0
  m_PrefabParentObject: {fileID: 0}
  m_PrefabInternal: {fileID: 0}
  m_GameObject: {fileID: 0}
  m_Enabled: 1
  m_EditorHideFlags: 0
  m_Script: {fileID: 11500000, guid: 16096eff3dcb7da47ac026c51374358e, type: 3}
  m_Name: 
  m_EditorClassIdentifier: 
  FsmHash: 10708
  _difficultyLevel: 30
  _sign: 3
